Instance,X(G),d%,|E|,|V|
1-FullIns_3,4.0,"0,23",100,30
1-FullIns_4,5.0,"0,14",593,93
1-FullIns_5,6.0,"0,08",3247,282
1-Insertions_4,5.0,"0,10",232,67
1-Insertions_5,6.0,"0,06",1227,202
1-Insertions_6,7.0,"0,03",6337,607
2-FullIns_3,5.0,"0,15",201,52
2-FullIns_4,6.0,"0,07",1621,212
2-FullIns_4,6.0,"0,07",1621,212
2-FullIns_5,7.0,"0,03",12201,852
2-Insertions_3,4.0,"0,11",72,37
2-Insertions_4,5.0,"0,05",541,149
2-Insertions_5,6.0,"0,02",3936,597
3-FullIns_3,6.0,"0,11",346,80
3-FullIns_4,7.0,"0,04",3524,405
3-Insertions_3,4.0,"0,07",110,56
3-Insertions_4,5.0,"0,03",1046,281
3-Insertions_5,6.0,"0,01",9695,1406
4-FullIns_3,7.0,"0,08",541,114
4-FullIns_4,8.0,"0,03",6650,690
4-Insertions_3,4.0,"0,05",156,79
4-Insertions_3,4.0,"0,05",156,79
4-Insertions_4,5.0,"0,02",1795,475
5-FullIns_3,8.0,"0,07",792,154
5-FullIns_4,9.0,"0,02",11395,1085
C2000.5,,"0,50",999836,2000
C2000.9,,"0,9",1799532,2000
C4000.5,,"0,50",4000268,4000
DSJC1000.1,,"0,10",49629,1000
DSJC1000.5,,"0,50",249826,1000
DSJC1000.9,,"0,90",449449,1000
DSJC125.1,5.0,"0,09",736,125
DSJC125.5,17.0,"0,50",125,3891
DSJC125.9,44.0,"0,90",125,6961
DSJC250.1,,"0,10",3218,250
DSJC250.5,,"0,50",15668,250
DSJC250.9,72.0,"0,90",250,27897
DSJC500.1,,"0,10",12458,500
DSJC500.5,,"0,50",62624,500
DSJC500.9,,"0,90",112437,500
DSJR500.1,12.0,"0,03",3555,500
DSJR500.1c,85.0,"0,97",500,121275
DSJR500.5,122.0,"0,47",500,58862
abb313GPIA,,"0,04",53356,1557
anna,11.0,"0,05",493,138
ash331GPIA,4.0,"0,02",4181,662
ash608GPIA,4.0,"0,01",7844,1216
ash958GPIA,4.0,"0,01",12506,1916
david,11.0,"0,11",406,87
flat1000_50_0,,"0,49",245000,1000
flat1000_60_0,,"0,49",245830,1000
flat1000_76_0,,"0,49",246708,1000
flat300_28_0,28.0,"0,48",300,21695
fpsol2.i.1,65.0,"0,09",11654,496
fpsol2.i.2,30.0,"0,09",8691,451
fpsol2.i.3,30.0,"0,10",8688,425
games120,9.0,"0,09",638,120
homer,13.0,"0,01",1628,561
huck,11.0,"0,11",301,74
inithx.i.1,54.0,"0,05",18707,864
inithx.i.2,31.0,"0,07",13979,645
inithx.i.3,31.0,"0,07",13969,621
jean,10.0,"0,08",254,80
latin_square_10,,"0,76",307350,900
le450_15a,15.0,"0,08",8168,450
le450_15b,15.0,"0,08",8169,450
le450_15c,15.0,"0,17",16680,450
le450_15d,15.0,"0,17",16750,450
le450_25a,25.0,"0,08",8260,450
le450_25b,25.0,"0,08",8263,450
le450_25c,25.0,"0,17",17343,450
le450_25d,25.0,"0,17",17425,450
le450_5a,5.0,"0,06",5714,450
le450_5b,5.0,"0,06",5734,450
le450_5c,5.0,"0,10",9803,450
le450_5d,5.0,"0,10",9757,450
miles1000,42.0,"0,40",3216,128
miles1500,73.0,"0,64",5198,128
miles250,8.0,"0,05",387,128
miles500,20.0,"0,14",1170,128
miles750,31.0,"0,26",2113,128
mug100_1,4.0,"0,03",166,100
mug100_25,4.0,"0,03",166,100
mug88_1,4.0,"0,04",146,88
mug88_25,4.0,"0,04",146,88
mulsol.i.1,49.0,"0,20",3925,197
mulsol.i.2,31.0,"0,22",3885,188
mulsol.i.3,31.0,"0,23",3916,184
mulsol.i.4,31.0,"0,23",3946,185
mulsol.i.5,31.0,"0,23",3973,186
myciel3,4.0,"0,36",20,11
myciel4,5.0,"0,28",71,23
myciel5,6.0,"0,22",236,47
myciel6,7.0,"0,17",755,95
myciel7,8.0,"0,13",2360,191
qg.order100,100.0,"0,02",990000,10000
qg.order30,30.0,"0,06",26100,900
qg.order40,40.0,"0,05",62400,1600
qg.order60,60.0,"0,03",212400,3600
queen10_10,11.0,"0,59",100,2940
queen11_11,11.0,"0,55",121,3960
queen12_12,12.0,"0,50",144,5192
queen13_13,13.0,"0,47",169,6656
queen14_14,14.0,"0,22",196,4186
queen15_15,15.0,"0,21",225,5180
queen5_5,5.0,"0,53",160,25
queen6_6,7.0,"0,46",290,36
queen7_7,7.0,"0,40",476,49
queen8_12,12.0,"0,30",1368,96
queen8_8,9.0,"0,36",728,64
queen9_9,10.0,"0,33",1056,81
r1000.1,20.0,"0,03",14378,1000
r1000.1c,,"0,97",485090,1000
r1000.5,234.0,"0,48",1000,238267
r125.1,5.0,"0,03",209,125
r125.1c,46.0,"0,97",7501,125
r125.5,36.0,"0,50",3838,125
r250.1,8.0,"0,03",867,250
r250.1c,64.0,"0,97",30227,250
r250.5,65.0,"0,48",250,14849
school1,14.0,"0,26",19095,385
school1_nsh,14.0,"0,24",14612,352
wap01a,,"0,04",110871,2368
wap02a,,"0,04",111742,2464
wap03a,,"0,03",286722,4730
wap04a,,"0,02",294902,5231
wap05a,50.0,"0,11",43081,905
wap06a,,"0,10",43571,947
wap07a,,"0,06",103368,1809
wap08a,,"0,06",104176,1870
will199GPIA,7.0,"0,03",6772,701
zeroin.i.1,49.0,"0,19",4100,211
zeroin.i.2,30.0,"0,16",3541,211
zeroin.i.3,30.0,"0,17",3540,206
